%YAML 1.1
%TAG !u! tag:unity3d.com,2011:
--- !u!1045 &1
EditorBuildSettings:
  m_ObjectHideFlags: 0
  serializedVersion: 2
  m_Scenes:
  - enabled: 1
    path: Assets/Scene/_preload.unity
    guid: 03b7b6625e8c2bb4eb27c172c2932f48
  - enabled: 1
    path: Assets/Scene/MenuUtama.unity
    guid: f06694fe448f4ae44a266d9486c6962a
  - enabled: 1
    path: Assets/Scene/Level1.unity
    guid: 67d4356067580604985050a1abb8c7bd
  - enabled: 1
    path: Assets/Scene/Level2.unity
    guid: 92628390e9fa4d049aebbc901bb4d4ea
  - enabled: 1
    path: Assets/Scene/Level3.unity
    guid: 2cf59b7b07e881046965d30271f8a036
